hardware/simple/hmips.vcd
$date
	Sun May  4 18:14:56 2014
$end
$version
	Icarus Verilog
$end
$timescale
	1ps
$end
$scope module test_hmips $end
$scope module hmips_1 $end
$var wire 1 ! addi_op $end
$var wire 32 " alu_b [31:0] $end
$var wire 1 # alu_op $end
$var wire 32 $ alu_y [31:0] $end
$var wire 1 % beq_op $end
$var wire 1 & bne_op $end
$var wire 5 ' cadr [4:0] $end
$var wire 1 ( clk $end
$var wire 6 ) com [5:0] $end
$var wire 32 * daddr [31:0] $end
$var wire 32 + ddatain [31:0] $end
$var wire 32 , ddataout [31:0] $end
$var wire 6 - func [5:0] $end
$var wire 32 . iaddr [31:0] $end
$var wire 32 / idatain [31:0] $end
$var wire 16 0 imm [15:0] $end
$var wire 1 1 lb_op $end
$var wire 1 2 lui_op $end
$var wire 1 3 lw_op $end
$var wire 6 4 opcode [5:0] $end
$var wire 1 5 ori_op $end
$var wire 5 6 rd [4:0] $end
$var wire 32 7 rf_a [31:0] $end
$var wire 32 8 rf_b [31:0] $end
$var wire 32 9 rf_c [31:0] $end
$var wire 5 : rs [4:0] $end
$var wire 1 ; rst_n $end
$var wire 5 < rt [4:0] $end
$var wire 1 = rwe $end
$var wire 1 > sb_op $end
$var wire 5 ? shamt [4:0] $end
$var wire 1 @ sw_op $end
$var wire 4 A we [3:0] $end
$var reg 32 B pc [31:0] $end
$scope module alu_1 $end
$var wire 32 C a [31:0] $end
$var wire 32 D b [31:0] $end
$var wire 6 E s [5:0] $end
$var wire 32 F y [31:0] $end
$upscope $end
$scope module rfile_1 $end
$var wire 32 G a [31:0] $end
$var wire 5 H aadr [4:0] $end
$var wire 32 I b [31:0] $end
$var wire 5 J badr [4:0] $end
$var wire 32 K c [31:0] $end
$var wire 5 L cadr [4:0] $end
$var wire 1 ( clk $end
$var wire 1 = we $end
$upscope $end
$upscope $end
$upscope $end
$enddefinitions $end
#0
$dumpvars
b1 L
b11 K
b1 J
bx I
b0 H
b0 G
b0 F
b100000 E
b0 D
b0 C
b0 B
b0 A
0@
b0 ?
0>
1=
b1 <
0;
b0 :
b11 9
bx 8
b0 7
b0 6
05
b100011 4
13
02
01
b0 0
b10001100000000010000000000000000 /
b0 .
b0 -
bx ,
b11 +
b0 *
b100000 )
0(
b1 '
0&
0%
b0 $
0#
b0 "
0!
$end
#5000
b11 8
b11 I
b11 ,
1(
#10000
0(
#12000
1;
#15000
b101 9
b101 K
b101 +
b100 $
b100 F
b100 *
b100 "
b100 D
b10 '
b10 L
bx 8
bx I
bx ,
b100 0
b10 <
b10 J
b100 -
b10001100000000100000000000000100 /
b100 B
b100 .
1(
#20000
0(
#25000
b11 +
b0 $
b0 F
b0 *
b0 "
b0 D
b0 9
b0 K
1#
b11 '
b11 L
b1100000100000 0
03
b0 4
b0 <
b0 J
b11 6
b100000 -
b0 8
b0 I
b0 ,
b1100000100000 /
b1000 B
b1000 .
1(
#30000
0(
#35000
b101 9
b101 K
b101 +
b101 $
b101 F
b101 *
b101 "
b101 D
b101 8
b101 I
b101 ,
b11 :
b11 H
b10 <
b10 J
b11000100001100000100000 /
b1100 B
b1100 .
1(
#40000
0(
#45000
b10 9
b10 K
b11111111111111111111111111111111 "
b11111111111111111111111111111111 D
b100000 )
b100000 E
b11 +
0#
b11 8
b11 I
b11 ,
b1 '
b1 L
b10 $
b10 F
b10 *
b1111111111111111 0
1!
b1000 4
b1 :
b1 H
b1 <
b1 J
b11111 6
b11111 ?
b111111 -
b11 7
b11 C
b11 G
b100000001000011111111111111111 /
b10000 B
b10000 .
1(
#50000
0(
#55000
b0 9
b0 K
b111101 )
b111101 E
b11 +
0=
b0 "
b0 D
b0 '
b0 L
b0 $
b0 F
b0 *
b1111111111111101 0
0!
1&
b101 4
b0 <
b0 J
b111101 -
b10 7
b10 C
b10 G
b0 8
b0 I
b0 ,
b10100001000001111111111111101 /
b10100 B
b10100 .
1(
#60000
0(
#65000
b1010 9
b1010 K
1=
bx +
b1010 $
b1010 F
b1010 *
b101 "
b101 D
b100000 )
b100000 E
1#
b101 7
b101 C
b101 G
b11 '
b11 L
b101 8
b101 I
b101 ,
b1100000100000 0
0&
b0 4
b11 :
b11 H
b10 <
b10 J
b11 6
b0 ?
b100000 -
b11000100001100000100000 /
b1100 B
b1100 .
1(
#70000
0(
#75000
b1 9
b1 K
b11 +
b11111111111111111111111111111111 "
b11111111111111111111111111111111 D
b100000 )
b100000 E
0#
b10 8
b10 I
b10 ,
b1 '
b1 L
b1 $
b1 F
b1 *
b1111111111111111 0
1!
b1000 4
b1 :
b1 H
b1 <
b1 J
b11111 6
b11111 ?
b111111 -
b10 7
b10 C
b10 G
b100000001000011111111111111111 /
b10000 B
b10000 .
1(
#80000
0(
#85000
b0 9
b0 K
b111101 )
b111101 E
b11 +
0=
b0 "
b0 D
b0 '
b0 L
b0 $
b0 F
b0 *
b1111111111111101 0
0!
1&
b101 4
b0 <
b0 J
b111101 -
b1 7
b1 C
b1 G
b0 8
b0 I
b0 ,
b10100001000001111111111111101 /
b10100 B
b10100 .
1(
#90000
0(
#95000
b1111 9
b1111 K
1=
bx +
b1111 $
b1111 F
b1111 *
b101 "
b101 D
b100000 )
b100000 E
1#
b1010 7
b1010 C
b1010 G
b11 '
b11 L
b101 8
b101 I
b101 ,
b1100000100000 0
0&
b0 4
b11 :
b11 H
b10 <
b10 J
b11 6
b0 ?
b100000 -
b11000100001100000100000 /
b1100 B
b1100 .
1(
#100000
0(
#105000
b0 9
b0 K
b11 +
b11111111111111111111111111111111 "
b11111111111111111111111111111111 D
b100000 )
b100000 E
0#
b1 8
b1 I
b1 ,
b1 '
b1 L
b0 $
b0 F
b0 *
b1111111111111111 0
1!
b1000 4
b1 :
b1 H
b1 <
b1 J
b11111 6
b11111 ?
b111111 -
b1 7
b1 C
b1 G
b100000001000011111111111111111 /
b10000 B
b10000 .
1(
#110000
0(
#115000
b0 9
b0 K
b111101 )
b111101 E
0=
b11 +
b0 "
b0 D
b0 '
b0 L
b0 $
b0 F
b0 *
b1111111111111101 0
0!
1&
b101 4
b0 <
b0 J
b111101 -
b0 7
b0 C
b0 G
b0 8
b0 I
b0 ,
b10100001000001111111111111101 /
b10100 B
b10100 .
1(
#120000
0(
#125000
b1000 9
b1000 K
bx +
b1000 $
b1000 F
b1000 *
b1000 "
b1000 D
b100000 )
b100000 E
b1111 A
b11 '
b11 L
b1111 8
b1111 I
b1111 ,
b1000 0
1@
0&
b101011 4
b0 :
b0 H
b11 <
b11 J
b0 6
b0 ?
b1000 -
b10101100000000110000000000001000 /
b11000 B
b11000 .
1(
#130000
0(
#135000
b0 9
b0 K
b111111 )
b111111 E
b0 $
b0 F
b0 *
b0 "
b0 D
b0 A
b0 '
b0 L
b0 8
b0 I
b0 ,
b1111111111111111 0
0@
1%
b100 4
b0 <
b0 J
b11111 6
b11111 ?
b111111 -
b10000000000001111111111111111 /
b11 +
b11100 B
b11100 .
1(
